Place,Sex,Name,Event,Division,WeightClassKg,Equipment,State,BodyweightKg,Squat1Kg,Squat2Kg,Squat3Kg,Best3SquatKg,Bench1Kg,Bench2Kg,Bench3Kg,Best3BenchKg,Deadlift1Kg,Deadlift2Kg,Deadlift3Kg,Best3DeadliftKg,TotalKg,BirthYear
1,M,Daniel Howsmon,B,M-O,105,Single-ply,NY,99.9,,,,,-245,252.5,-262.5,252.5,,,,,252.5,1990
1,M,AJ Richichi,B,MR-Jr,66,Raw,NY,64.9,,,,,112.5,-115,115,115,,,,,115,1993
1,M,Adam Zehr,B,MR-O,66,Raw,NY,64.9,,,,,162.5,167.5,-172.5,167.5,,,,,167.5,1979
1,M,Taylor Pequignot,B,MR-O,93,Raw,VT,90.9,,,,,117.5,125,-130,125,,,,,125,1992
1,M,Pat Bueti,D,MR-Jr,66,Raw,NY,65.5,,,,,,,,,150,157.5,162.5,162.5,162.5,1995
1,M,Islam Ali,D,MR-T,74,Raw,NJ,70.4,,,,,,,,,115,157.5,-185,157.5,157.5,2001
1,M,Steven Juca,SBD,MR-Jr,66,Raw,NY,65.4,160,165,-175,165,92.5,-97.5,-100,92.5,-175,175,-180,175,432.5,1993
1,M,Matthew Taylor,SBD,MR-Jr,74,Raw,NJ,73.5,182.5,-200,-205,182.5,130,137.5,147.5,147.5,197.5,210,-227.5,210,540,1992
2,M,Eric Heckelmann,SBD,MR-Jr,74,Raw,NJ,71.9,160,175,-187.5,175,115,125,-132.5,125,185,210,-225,210,510,1982
1,M,Richard Hsu,SBD,MR-Jr,83,Raw,NJ,78.1,165,175,182.5,182.5,125,135,-142.5,135,182.5,185,195,195,512.5,1993
2,M,James Wehr,SBD,MR-Jr,83,Raw,NY,82.3,170,177.5,-187.5,177.5,115,-122.5,-122.5,115,175,182.5,190,190,482.5,1995
3,M,Kane Szigethy,SBD,MR-Jr,83,Raw,NJ,77.3,125,137.5,142.5,142.5,80,90,95,95,150,165,-182.5,165,402.5,1992
1,M,Daniel Batista,SBD,MR-Jr,93,Raw,NY,92.8,-225,225,-232.5,225,120,125,127.5,127.5,230,240,255,255,607.5,1992
2,M,Michael Flavoni,SBD,MR-Jr,93,Raw,NY,87.3,185,,,185,110,125,137.5,137.5,185,,,185,507.5,1996
3,M,Thomas Kelly,SBD,MR-Jr,93,Raw,NY,87.7,190,,,190,95,100,105,105,190,,,190,485,1996
1,M,Dave Derry,SBD,MR-Jr,105,Raw,NY,103.5,190,205,217.5,217.5,135,142.5,-152.5,142.5,260,280,-282.5,280,640,1995
2,M,Austin Patkos,SBD,MR-Jr,105,Raw,PA,93.7,195,210,215,215,132.5,-140,-140,132.5,220,242.5,250,250,597.5,1994
1,M,Justin Bush,SBD,MR-Jr,120,Raw,NY,109.6,160,167.5,180,180,155,165,-167.5,165,210,220,227.5,227.5,572.5,1993
1,M,William McFee,SBD,MR-Jr,120+,Raw,NY,144.7,210,227.5,237.5,237.5,175,185,190,190,255,272.5,282.5,282.5,710,1995
2,M,Albert John Ulinski,SBD,MR-Jr,120+,Raw,NJ,155.4,217.5,232.5,250,250,162.5,167.5,177.5,177.5,255,265,275,275,702.5,1993
1,M,Vadim Vilensky,SBD,MR-M,83,Raw,NY,81.4,140,155,-160,155,112.5,120,125,125,185,202.5,,202.5,482.5,1968
2,M,John Curtin,SBD,MR-M,83,Raw,NY,81.1,142.5,147.5,-152.5,147.5,115,117.5,-120,117.5,182.5,187.5,190,190,455,1965
1,M,Taro Tsutsumi,SBD,MR-M,93,Raw,NY,92.5,205,222.5,232.5,232.5,122.5,130,-135,130,235,-252.5,-252.5,235,597.5,1976
2,M,Jerry Szigethy,SBD,MR-M,93,Raw,NY,90.6,-160,160,180,180,107.5,115,122.5,122.5,265,-282.5,-282.5,265,567.5,1956
3,M,Scott Walrath,SBD,MR-M,93,Raw,NY,91.8,-177.5,177.5,-182.5,177.5,127.5,135,140,140,190,200,,200,517.5,1962
1,M,Anthony LaPorta,SBD,MR-M,105,Raw,NY,100.6,180,195,205,205,130,140,-142.5,140,210,230,-245,230,575,1963
2,M,Matt Endres,SBD,MR-M,105,Raw,NY,97.5,182.5,-190,-192.5,182.5,127.5,-137.5,-137.5,127.5,222.5,-227.5,227.5,227.5,537.5,1959
3,M,Michael Walrath,SBD,MR-M,105,Raw,NY,98,-177.5,177.5,-180,177.5,105,117.5,-120,117.5,195,217.5,-220,217.5,512.5,1954
DQ,M,Michael Caceci,SBD,MR-M,105,Raw,NY,105,152.5,160,165,165,-135,-135,-135,,-197.5,197.5,210,210,,1969
1,M,Daniel Grogul,SBD,MR-M,120,Raw,NY,108.1,127.5,-132.5,132.5,132.5,125,132.5,-135,132.5,167.5,172.5,185,185,450,1960
1,M,David Reichard,SBD,MR-M,120+,Raw,PA,127.5,175,185,187.5,187.5,150,-155,-155,150,182.5,190,-195,190,527.5,1970
1,M,Jonathon Glossner,SBD,MR-O,66,Raw,NH,66,137.5,145,150,150,115,-117.5,-117.5,115,227.5,240,-250,240,505,1988
2,M,Miguel Gonzalez #4,SBD,MR-O,66,Raw,NY,66,145,147.5,152.5,152.5,130,135,-140,135,170,177.5,185,185,472.5,1982
1,M,Kelvin L Melton II,SBD,MR-O,74,Raw,NY,72.8,140,150,162.5,162.5,135,142.5,-150,142.5,-207.5,217.5,-230,217.5,522.5,1990
2,M,Constantinos Labrinos,SBD,MR-O,74,Raw,NY,71.7,165,175,-182.5,175,97.5,102.5,-110,102.5,200,210,-215,210,487.5,1992
1,M,Robert Ali,SBD,MR-O,83,Raw,NY,81.8,217.5,232.5,242.5,242.5,135,142.5,150,150,255,-265,265,265,657.5,1992
2,M,Jorge Unigaro,SBD,MR-O,83,Raw,NY,82,-207.5,207.5,212.5,212.5,150,157.5,160,160,-260,260,,260,632.5,1982
3,M,Stephen Borchard,SBD,MR-O,83,Raw,NJ,82.2,180,190,200,200,137.5,147.5,-155,147.5,225,237.5,245,245,592.5,1987
4,M,Matt Bourne,SBD,MR-O,83,Raw,NY,80.8,207.5,-217.5,-217.5,207.5,117.5,127.5,-137.5,127.5,215,227.5,-240,227.5,562.5,1990
5,M,Aaron Quigley,SBD,MR-O,83,Raw,NY,81.4,177.5,-190,190,190,130,137.5,-142.5,137.5,205,217.5,225,225,552.5,1979
6,M,Reis Szigethy,SBD,MR-O,83,Raw,NY,80.1,-175,175,-192.5,175,110,117.5,-125,117.5,227.5,242.5,,242.5,535,1988
1,M,Mario Valero,SBD,MR-O,93,Raw,NY,89.6,235,247.5,-255,247.5,175,177.5,-182.5,177.5,255,262.5,272.5,272.5,697.5,1980
2,M,Eric Duggan,SBD,MR-O,93,Raw,NY,93,205,217.5,227.5,227.5,160,170,-185,170,250,270,280,280,677.5,1988
3,M,Anthony Bevilacqua,SBD,MR-O,93,Raw,NY,89.9,210,222.5,232.5,232.5,152.5,162.5,165,165,245,260,-265,260,657.5,1987
4,M,Frank Salvaggio,SBD,MR-O,93,Raw,NY,92.7,200,210,220,220,137.5,142.5,147.5,147.5,-250,272.5,275,275,642.5,1985
5,M,Harry Lightsey,SBD,MR-O,93,Raw,NY,92.6,-235,-235,235,235,145,-155,-155,145,240,250,,250,630,1989
6,M,Michael Sapudar,SBD,MR-O,93,Raw,NJ,91.9,207.5,217.5,-227.5,217.5,140,147.5,-150,147.5,237.5,250,-255,250,615,1986
7,M,Taro Tsutsumi,SBD,MR-O,93,Raw,NY,92.5,205,222.5,232.5,232.5,122.5,130,-135,130,235,-252.5,-252.5,235,597.5,1976
8,M,Nicholas Schneider,SBD,MR-O,93,Raw,NY,91.1,190,205,-215,205,122.5,130,-132.5,130,220,230,235,235,570,1987
9,M,Travis Pratt,SBD,MR-O,93,Raw,NY,91.2,182.5,195,210,210,142.5,150,-155,150,205,-227.5,-227.5,205,565,1989
10,M,Cody Browder,SBD,MR-O,93,Raw,NY,88.7,160,185,-190,185,130,137.5,-140,137.5,205,217.5,227.5,227.5,550,1990
11,M,James Rose,SBD,MR-O,93,Raw,NY,91,162.5,175,187.5,187.5,117.5,127.5,-137.5,127.5,200,215,227.5,227.5,542.5,1990
12,M,Spenser Souza,SBD,MR-O,93,Raw,NE,87.2,185,195,-210,195,-102.5,102.5,-105,102.5,217.5,230,237.5,237.5,535,1991
13,M,Michael Albigese,SBD,MR-O,93,Raw,NJ,89.7,157.5,175,190,190,125,-142.5,150,150,175,182.5,-205,182.5,522.5,1989
14,M,Christian Andrews,SBD,MR-O,93,Raw,NY,88.3,150,165,-172.5,165,120,-127.5,127.5,127.5,-212.5,217.5,-230,217.5,510,1990
15,M,Brian Scherer,SBD,MR-O,93,Raw,NY,91.4,-142.5,142.5,157.5,157.5,-115,115,-135,115,210,220,-227.5,220,492.5,1986
16,M,Ayman M Ahmad,SBD,MR-O,93,Raw,NY,90.5,165,172.5,-182.5,172.5,97.5,-102.5,-102.5,97.5,187.5,200,205,205,475,1992
1,M,Walker Bradshaw,SBD,MR-O,105,Raw,NY,102.6,240,255,265,265,-165,165,175,175,300,-315,,300,740,1992
2,M,Jonathon Mielec,SBD,MR-O,105,Raw,NY,99.2,182.5,-207.5,215,215,137.5,145,-155,145,262.5,282.5,290,290,650,1980
1,M,Joseph Michalski,SBD,MR-O,120,Raw,NY,119.4,195,230,-242.5,230,160,-170,-170,160,240,252.5,-265,252.5,642.5,1992
2,M,Topher Tornow,SBD,MR-O,120,Raw,NY,107.7,182.5,207.5,-217.5,207.5,142.5,150,-157.5,150,227.5,-247.5,247.5,247.5,605,1977
3,M,Colin Flory,SBD,MR-O,120,Raw,PA,105.7,155,160,162.5,162.5,-72.5,72.5,77.5,77.5,195,200,205,205,445,1978
1,M,Stephen Urban,SBD,MR-O,120+,Raw,NY,125,210,220,227.5,227.5,167.5,175,-182.5,175,270,282.5,292.5,292.5,695,1988
2,M,Matthew Pietrantonio,SBD,MR-O,120+,Raw,CT,127.8,220,227.5,235,235,167.5,175,-182.5,175,227.5,237.5,247.5,247.5,657.5,1984
3,M,Gary Palmer,SBD,MR-O,120+,Raw,NY,127.6,-232.5,232.5,240,240,150,155,-157.5,155,237.5,250,-260,250,645,1984
1,M,Joe Endres,SBD,MR-T,59,Raw,NY,56.6,100,107.5,115,115,60,65,-67.5,65,100,107.5,117.5,117.5,297.5,2000
2,M,Anton Vilensky,SBD,MR-T,59,Raw,NY,56.2,55,60,62.5,62.5,-32.5,35,37.5,37.5,72.5,77.5,82.5,82.5,182.5,2001
1,M,Joshua Gee,SBD,MR-T,74,Raw,NY,70.4,162.5,175,-185,175,105,110,-117.5,110,-180,195,-215,195,480,1996
2,M,Tetsuya Kawakita,SBD,MR-T,74,Raw,NY,73.3,150,155,-157.5,155,87.5,90,92.5,92.5,205,-207.5,207.5,207.5,455,1996
DQ,M,Parker Brooks,SBD,MR-T,74,Raw,NY,72.9,-135,-142.5,-142.5,,92.5,-102.5,-102.5,92.5,175,182.5,-187.5,182.5,,1992
1,M,Connor Hale,SBD,MR-T,93,Raw,NY,92.3,227.5,237.5,-250,237.5,-142.5,147.5,-155,147.5,205,227.5,237.5,237.5,622.5,1996
2,M,James Perra,SBD,MR-T,93,Raw,NY,89.5,212.5,225,-235,225,140,-147.5,-147.5,140,227.5,240,252.5,252.5,617.5,1997
1,F,Janibell Suero,SBD,FR-Jr,47,Raw,NY,44.6,92.5,97.5,-102.5,97.5,47.5,-50,-50,47.5,105,110,112.5,112.5,257.5,1993
1,F,Isle Bastille,SBD,FR-Jr,57,Raw,MA,56.5,110,-117.5,117.5,117.5,47.5,50,-55,50,110,120,-130,120,287.5,1992
1,F,Ashley Pollard,SBD,FR-Jr,63,Raw,NY,62,90,97.5,-105,97.5,55,-60,60,60,97.5,107.5,115,115,272.5,1995
1,F,Mary Fleckenstein,SBD,FR-Jr,72,Raw,NY,66.7,110,117.5,122.5,122.5,60,67.5,-70,67.5,112.5,122.5,132.5,132.5,322.5,1996
2,F,Alexsandria Amell,SBD,FR-Jr,72,Raw,NY,71.8,102.5,-107.5,-107.5,102.5,52.5,55,-62.5,55,110,115,122.5,122.5,280,1994
1,F,Emilia Sainato,SBD,FR-Jr,84,Raw,NY,82.6,137.5,147.5,-157.5,147.5,70,75,-80,75,137.5,145,152.5,152.5,375,1993
2,F,Carissa Kinsella,SBD,FR-Jr,84,Raw,NY,77,75,85,-90,85,42.5,50,-57.5,50,105,120,-127.5,120,255,1995
1,F,Joanna Welsh,SBD,FR-M,52,Raw,NY,48.3,95,102.5,105,105,57.5,62.5,-65,62.5,132.5,140,142.5,142.5,310,1972
1,F,Melissa Forbis,SBD,FR-M,57,Raw,NY,54.5,90,97.5,102.5,102.5,50,55,57.5,57.5,100,107.5,112.5,112.5,272.5,1966
1,F,Francine Lee,SBD,FR-M,63,Raw,NY,61.2,-60,60,65,65,-45,50,-55,50,-92.5,92.5,102.5,102.5,217.5,1961
1,F,Judi DeMuro,SBD,FR-M,72,Raw,NY,70.5,62.5,70,80,80,55,57.5,60,60,85,102.5,107.5,107.5,247.5,1960
1,F,Janibell Suero,SBD,FR-O,47,Raw,NY,44.6,92.5,97.5,-102.5,97.5,47.5,-50,-50,47.5,105,110,112.5,112.5,257.5,1993
2,F,Stacey Soto,SBD,FR-O,47,Raw,NY,42.1,-62.5,67.5,-75,67.5,30,-35,37.5,37.5,80,87.5,95,95,200,1980
3,F,Samantha Murphy,SBD,FR-O,47,Raw,NH,46.8,42.5,-47.5,52.5,52.5,30,-35,35,35,75,82.5,92.5,92.5,180,1991
1,F,Nicole Goodsell,SBD,FR-O,57,Raw,MD,55.6,105,110,-117.5,110,57.5,60,62.5,62.5,117.5,127.5,132.5,132.5,305,1990
2,F,Mary Maginn,SBD,FR-O,57,Raw,NY,56.7,97.5,102.5,-107.5,102.5,55,57.5,-60,57.5,130,137.5,142.5,142.5,302.5,1981
3,F,Isle Bastille,SBD,FR-O,57,Raw,MA,56.5,110,-117.5,117.5,117.5,47.5,50,-55,50,110,120,-130,120,287.5,1992
4,F,Adina Tornow,SBD,FR-O,57,Raw,NY,54.7,75,82.5,-90,82.5,47.5,52.5,-57.5,52.5,102.5,110,115,115,250,1969
1,F,Dena Gold,SBD,FR-O,63,Raw,NY,62.6,120,125,-130,125,72.5,-77.5,-77.5,72.5,160,167.5,172.5,172.5,370,1988
2,F,Reyna Rochin,SBD,FR-O,63,Raw,NY,62.3,117.5,127.5,-137.5,127.5,67.5,75,-82.5,75,135,147.5,155,155,357.5,1990
3,F,Stephanie Chaluissant,SBD,FR-O,63,Raw,NY,63,102.5,110,112.5,112.5,52.5,57.5,60,60,137.5,147.5,150,150,322.5,1987
4,F,Chloe Pietropaolo,SBD,FR-O,63,Raw,NY,60.1,92.5,100,105,105,47.5,50,-52.5,50,102.5,110,115,115,270,1994
5,F,Natalie Wolff,SBD,FR-O,63,Raw,NY,62.8,70,80,-90,80,45,-50,-50,45,95,105,-110,105,230,1991
6,F,Francine Lee,SBD,FR-O,63,Raw,NY,61.2,-60,60,65,65,-45,50,-55,50,-92.5,92.5,102.5,102.5,217.5,1961
1,F,Nicole Pellerin,SBD,FR-O,72,Raw,CT,69,105,112.5,120,120,65,70,75,75,122.5,127.5,132.5,132.5,327.5,1991
2,F,Autumn Kuklinski,SBD,FR-O,72,Raw,NY,69.5,90,97.5,-102.5,97.5,52.5,-57.5,-57.5,52.5,115,-130,137.5,137.5,287.5,1991
3,F,Stephanie LiVecchi,SBD,FR-O,72,Raw,NY,66.4,82.5,87.5,-92.5,87.5,37.5,42.5,47.5,47.5,95,102.5,110,110,245,1988
DQ,F,Ashley Fleming,SBD,FR-O,72,Raw,NY,71.6,75,80,-82.5,80,-40,-45,-45,,115,120,125,125,,1991
1,F,Emilia Sainato,SBD,FR-O,84,Raw,NY,82.6,137.5,147.5,-157.5,147.5,70,75,-80,75,137.5,145,152.5,152.5,375,1993
2,F,Anna Claire Loper,SBD,FR-O,84,Raw,NY,72.4,100,105,110,110,67.5,72.5,-75,72.5,137.5,-142.5,-145,137.5,320,1992
1,F,Heather Osswald,SBD,FR-O,84+,Raw,NY,121.7,-155,155,-157.5,155,85,92.5,-95,92.5,162.5,-165,-165,162.5,410,1985
2,F,Gayge Jakobsen Maggio,SBD,FR-O,84+,Raw,NY,88.5,100,105,-107.5,105,65,70,-75,70,115,125,135,135,310,1981
1,M,Edward Dombrowski,BD,MR-O,93,Raw,NY,90.7,,,,,95,102.5,107.5,107.5,-190,190,200,200,307.5,1986
1,M,Pasquale Oliveri,BD,MR-O,105,Raw,NY,103,,,,,-125,132.5,-140,132.5,180,192.5,-205,192.5,325,1985
1,F,Tiffany Sanders,BD,FR-M,84,Raw,CT,72.7,,,,,60,65,70,70,102.5,112.5,122.5,122.5,192.5,1975
1,F,Tiffany Sanders,BD,FR-O,84,Raw,CT,72.7,,,,,60,65,70,70,102.5,112.5,122.5,122.5,192.5,1975
